holland-thesis - 1 Quantifying Art Historical Narratives
…
# A tibble: 164 × 14
# Groups:   artist_name [164]
   artist_name            edition_number  year artist_national… artist_national…
   <chr>                           <dbl> <dbl> <chr>            <chr>           
 1 Aaron Douglas                      13  2009 American         American        
 2 Adolphe William Bougu…             13  2009 French           French          
 3 Albert Bierstadt                   13  2009 German-American  Other           
 4 Alfred Stieglitz                   13  2009 American         American        
 5 Ana Mendieta                       13  2009 Cuban-American   Other           
 6 André Derain                       13  2009 French           French          
 7 Andy Warhol                        13  2009 American         American        
 8 Angelica Kauffmann                 13  2009 Swiss            Other           
 9 Anne Louis Girodet Tr…             13  2009 French           French          
10 Anselm Kiefer                      13  2009 German           German          
# … with 154 more rows, and 9 more variables: artist_gender <chr>,
#   artist_race <chr>, artist_ethnicity <chr>, book <chr>,
#   space_ratio_per_page_total <dbl>, artist_unique_id <int>,
#   moma_count_to_year <dbl>, whitney_count_to_year <dbl>,
#   artist_race_nwi <chr>
…
# A tibble: 153 × 14
# Groups:   artist_name [153]
   artist_name            edition_number  year artist_national… artist_national…
   <chr>                           <dbl> <dbl> <chr>            <chr>           
 1 Adolphe William Bougu…              8  2011 French           French          
 2 Albert Pinkham Ryder                8  2011 American         American        
 3 Alexander Rodchenko                 8  2011 Russian          Other           
 4 Alfred Stieglitz                    8  2011 American         American        
 5 Ando Hiroshige                      8  2011 Japanese         Other           
 6 André Derain                        8  2011 French           French          
 7 Andy Warhol                         8  2011 American         American        
 8 Angelica Kauffmann                  8  2011 Swiss            Other           
 9 Anne Louis Girodet Tr…              8  2011 French           French          
10 Anselm Kiefer                       8  2011 German           German          
# … with 143 more rows, and 9 more variables: artist_gender <chr>,
#   artist_race <chr>, artist_ethnicity <chr>, book <chr>,
#   space_ratio_per_page_total <dbl>, artist_unique_id <int>,
#   moma_count_to_year <dbl>, whitney_count_to_year <dbl>,
#   artist_race_nwi <chr>
…
# A tibble: 717 × 5
# Groups:   artist_name [132]
   artist_name      edition_number  year book    space_ratio_per_page_total
   <chr>                     <dbl> <dbl> <chr>                        <dbl>
 1 Vincent Van Gogh            7    2007 Janson                        2.16
 2 Vincent Van Gogh            2    1977 Janson                        1.79
 3 Vincent Van Gogh            3    1986 Janson                        1.63
 4 Vincent Van Gogh            1    1963 Janson                        1.55
 5 Vincent Van Gogh            1.1  1969 Janson                        1.54
 6 Vincent Van Gogh            8    2011 Janson                        1.38
 7 Vincent Van Gogh           15    2016 Gardner                       1.27
 8 Karl Bodmer                 6    1975 Gardner                       1.21
 9 Paul Klee                   6    1975 Gardner                       1.20
10 Paul Klee                   5    1970 Gardner                       1.19
# … with 707 more rows
…
